%YAML 1.1
%TAG !u! tag:unity3d.com,2011:
--- !u!74 &7400000
AnimationClip:
  m_ObjectHideFlags: 0
  m_PrefabParentObject: {fileID: 0}
  m_PrefabInternal: {fileID: 0}
  m_Name: BC_LEFT_FALL
  serializedVersion: 6
  m_Legacy: 0
  m_Compressed: 0
  m_UseHighQualityCurve: 1
  m_RotationCurves: []
  m_CompressedRotationCurves: []
  m_EulerCurves: []
  m_PositionCurves: []
  m_ScaleCurves: []
  m_FloatCurves: []
  m_PPtrCurves:
  - curve:
    - time: 0
      value: {fileID: 21300000, guid: 18730e3c9608241a99c1fca7a02f67b7, type: 3}
    - time: 0.083333336
      value: {fileID: 21300000, guid: 872e8ae37b41d4e49b9ad9fb5474a846, type: 3}
    - time: 0.16666667
      value: {fileID: 21300000, guid: bbab0ec4791cf45fcafd0ffd2272a524, type: 3}
    - time: 0.25
      value: {fileID: 21300000, guid: 65791bec31952477eac3457bddbb7fc2, type: 3}
    - time: 0.33333334
      value: {fileID: 21300000, guid: 8c8d5f580a6314cf5a655c0a0e5f74a3, type: 3}
    - time: 0.41666666
      value: {fileID: 21300000, guid: 9fca0f04567a9442892ddd2ba7ca975c, type: 3}
    - time: 0.5
      value: {fileID: 21300000, guid: 8ab1e0bb6dc404eb79b343e318309314, type: 3}
    - time: 0.5833333
      value: {fileID: 21300000, guid: 760e8d13a9c9d47c88be9fb823caddda, type: 3}
    attribute: m_Sprite
    path: 
    classID: 212
    script: {fileID: 0}
  m_SampleRate: 12
  m_WrapMode: 0
  m_Bounds:
    m_Center: {x: 0, y: 0, z: 0}
    m_Extent: {x: 0, y: 0, z: 0}
  m_ClipBindingConstant:
    genericBindings:
    - path: 0
      attribute: 0
      script: {fileID: 0}
      classID: 212
      customType: 23
      isPPtrCurve: 1
    pptrCurveMapping:
    - {fileID: 21300000, guid: 18730e3c9608241a99c1fca7a02f67b7, type: 3}
    - {fileID: 21300000, guid: 872e8ae37b41d4e49b9ad9fb5474a846, type: 3}
    - {fileID: 21300000, guid: bbab0ec4791cf45fcafd0ffd2272a524, type: 3}
    - {fileID: 21300000, guid: 65791bec31952477eac3457bddbb7fc2, type: 3}
    - {fileID: 21300000, guid: 8c8d5f580a6314cf5a655c0a0e5f74a3, type: 3}
    - {fileID: 21300000, guid: 9fca0f04567a9442892ddd2ba7ca975c, type: 3}
    - {fileID: 21300000, guid: 8ab1e0bb6dc404eb79b343e318309314, type: 3}
    - {fileID: 21300000, guid: 760e8d13a9c9d47c88be9fb823caddda, type: 3}
  m_AnimationClipSettings:
    serializedVersion: 2
    m_AdditiveReferencePoseClip: {fileID: 0}
    m_AdditiveReferencePoseTime: 0
    m_StartTime: 0
    m_StopTime: 0.6666666
    m_OrientationOffsetY: 0
    m_Level: 0
    m_CycleOffset: 0
    m_HasAdditiveReferencePose: 0
    m_LoopTime: 1
    m_LoopBlend: 0
    m_LoopBlendOrientation: 0
    m_LoopBlendPositionY: 0
    m_LoopBlendPositionXZ: 0
    m_KeepOriginalOrientation: 0
    m_KeepOriginalPositionY: 1
    m_KeepOriginalPositionXZ: 0
    m_HeightFromFeet: 0
    m_Mirror: 0
  m_EditorCurves: []
  m_EulerEditorCurves: []
  m_HasGenericRootTransform: 0
  m_HasMotionFloatCurves: 0
  m_GenerateMotionCurves: 0
  m_Events: []
