%YAML 1.1
%TAG !u! tag:unity3d.com,2011:
--- !u!74 &7400000
AnimationClip:
  m_ObjectHideFlags: 0
  m_PrefabParentObject: {fileID: 0}
  m_PrefabInternal: {fileID: 0}
  m_Name: SWASHBUCKLER_DAMAGED
  serializedVersion: 6
  m_Legacy: 0
  m_Compressed: 0
  m_UseHighQualityCurve: 1
  m_RotationCurves: []
  m_CompressedRotationCurves: []
  m_EulerCurves: []
  m_PositionCurves: []
  m_ScaleCurves: []
  m_FloatCurves: []
  m_PPtrCurves:
  - curve:
    - time: 0
      value: {fileID: 21300000, guid: e560369e4ad094d7cad914f43d15c989, type: 3}
    - time: 0.041666668
      value: {fileID: 21300000, guid: 85da30d7ebb664ba58cb0037b77bf3ed, type: 3}
    - time: 0.083333336
      value: {fileID: 21300000, guid: 71096374ca766425c9238b156fd86701, type: 3}
    - time: 0.125
      value: {fileID: 21300000, guid: 1b6ce4c99e24647acbb976955db25235, type: 3}
    - time: 0.16666667
      value: {fileID: 21300000, guid: 41f4f4acfde1e4209863e9580d6b5c5d, type: 3}
    - time: 0.20833334
      value: {fileID: 21300000, guid: 391f18230615a47969a62f6a64d0dcee, type: 3}
    - time: 0.25
      value: {fileID: 21300000, guid: f880579a36f69441e9e1f0a7f75b52be, type: 3}
    - time: 0.2916667
      value: {fileID: 21300000, guid: a5173c47541044aa9a11e371fe35fc6a, type: 3}
    - time: 0.33333334
      value: {fileID: 21300000, guid: 3f43549dbe5b946418e42ec0b01133e3, type: 3}
    - time: 0.375
      value: {fileID: 21300000, guid: 424e8e1a86c8f4cb8bf2bbecdbe910b3, type: 3}
    attribute: m_Sprite
    path: 
    classID: 212
    script: {fileID: 0}
  m_SampleRate: 24
  m_WrapMode: 0
  m_Bounds:
    m_Center: {x: 0, y: 0, z: 0}
    m_Extent: {x: 0, y: 0, z: 0}
  m_ClipBindingConstant:
    genericBindings:
    - path: 0
      attribute: 0
      script: {fileID: 0}
      classID: 212
      customType: 23
      isPPtrCurve: 1
    pptrCurveMapping:
    - {fileID: 21300000, guid: e560369e4ad094d7cad914f43d15c989, type: 3}
    - {fileID: 21300000, guid: 85da30d7ebb664ba58cb0037b77bf3ed, type: 3}
    - {fileID: 21300000, guid: 71096374ca766425c9238b156fd86701, type: 3}
    - {fileID: 21300000, guid: 1b6ce4c99e24647acbb976955db25235, type: 3}
    - {fileID: 21300000, guid: 41f4f4acfde1e4209863e9580d6b5c5d, type: 3}
    - {fileID: 21300000, guid: 391f18230615a47969a62f6a64d0dcee, type: 3}
    - {fileID: 21300000, guid: f880579a36f69441e9e1f0a7f75b52be, type: 3}
    - {fileID: 21300000, guid: a5173c47541044aa9a11e371fe35fc6a, type: 3}
    - {fileID: 21300000, guid: 3f43549dbe5b946418e42ec0b01133e3, type: 3}
    - {fileID: 21300000, guid: 424e8e1a86c8f4cb8bf2bbecdbe910b3, type: 3}
  m_AnimationClipSettings:
    serializedVersion: 2
    m_AdditiveReferencePoseClip: {fileID: 0}
    m_AdditiveReferencePoseTime: 0
    m_StartTime: 0
    m_StopTime: 0.41666666
    m_OrientationOffsetY: 0
    m_Level: 0
    m_CycleOffset: 0
    m_HasAdditiveReferencePose: 0
    m_LoopTime: 0
    m_LoopBlend: 0
    m_LoopBlendOrientation: 0
    m_LoopBlendPositionY: 0
    m_LoopBlendPositionXZ: 0
    m_KeepOriginalOrientation: 0
    m_KeepOriginalPositionY: 1
    m_KeepOriginalPositionXZ: 0
    m_HeightFromFeet: 0
    m_Mirror: 0
  m_EditorCurves: []
  m_EulerEditorCurves: []
  m_HasGenericRootTransform: 0
  m_HasMotionFloatCurves: 0
  m_GenerateMotionCurves: 0
  m_Events: []
