%YAML 1.1
%TAG !u! tag:unity3d.com,2011:
--- !u!74 &7400000
AnimationClip:
  m_ObjectHideFlags: 0
  m_PrefabParentObject: {fileID: 0}
  m_PrefabInternal: {fileID: 0}
  m_Name: SWASHBUCKLER_WALK
  serializedVersion: 6
  m_Legacy: 0
  m_Compressed: 0
  m_UseHighQualityCurve: 1
  m_RotationCurves: []
  m_CompressedRotationCurves: []
  m_EulerCurves: []
  m_PositionCurves: []
  m_ScaleCurves: []
  m_FloatCurves: []
  m_PPtrCurves:
  - curve:
    - time: 0
      value: {fileID: 21300000, guid: 3e05208c49b444d8fb104eb01f20bd85, type: 3}
    - time: 0.041666668
      value: {fileID: 21300000, guid: 68a3c6a2bccbf45ef946f4975c9bd96d, type: 3}
    - time: 0.083333336
      value: {fileID: 21300000, guid: cfae95fef67714b33ba6d9adb91dc2a2, type: 3}
    - time: 0.125
      value: {fileID: 21300000, guid: 0c77507c451ab48d6a331c057d77909f, type: 3}
    - time: 0.16666667
      value: {fileID: 21300000, guid: f8fb396f54fca4835911ab907432eba3, type: 3}
    - time: 0.20833334
      value: {fileID: 21300000, guid: 97023f0185881493d82549916e5ad263, type: 3}
    - time: 0.25
      value: {fileID: 21300000, guid: 81edd33b437ee4fef9930e07644e0163, type: 3}
    - time: 0.2916667
      value: {fileID: 21300000, guid: a0eaa407bdb924f2baf53900ddb06fea, type: 3}
    - time: 0.33333334
      value: {fileID: 21300000, guid: d4d4eedb104e443af8472d606ddef2da, type: 3}
    - time: 0.375
      value: {fileID: 21300000, guid: 89b2c664d4533406692051e65bb2a349, type: 3}
    - time: 0.4166667
      value: {fileID: 21300000, guid: df8b3e45f1d4548628da7bcb54515d71, type: 3}
    - time: 0.45833334
      value: {fileID: 21300000, guid: c8d87d140de564c10ad062ad59ca0fb9, type: 3}
    - time: 0.5
      value: {fileID: 21300000, guid: aeaec4c26c7ba4762a5f73b70b70307b, type: 3}
    - time: 0.5416667
      value: {fileID: 21300000, guid: d448a5e066c644f9796019c504486c89, type: 3}
    - time: 0.5833334
      value: {fileID: 21300000, guid: 8dc9f08ad3b4c42c1ba9813bac1ce2ee, type: 3}
    - time: 0.625
      value: {fileID: 21300000, guid: 2282b0e073883472eab93fab57f32d31, type: 3}
    attribute: m_Sprite
    path: 
    classID: 212
    script: {fileID: 0}
  m_SampleRate: 24
  m_WrapMode: 0
  m_Bounds:
    m_Center: {x: 0, y: 0, z: 0}
    m_Extent: {x: 0, y: 0, z: 0}
  m_ClipBindingConstant:
    genericBindings:
    - path: 0
      attribute: 0
      script: {fileID: 0}
      classID: 212
      customType: 23
      isPPtrCurve: 1
    pptrCurveMapping:
    - {fileID: 21300000, guid: 3e05208c49b444d8fb104eb01f20bd85, type: 3}
    - {fileID: 21300000, guid: 68a3c6a2bccbf45ef946f4975c9bd96d, type: 3}
    - {fileID: 21300000, guid: cfae95fef67714b33ba6d9adb91dc2a2, type: 3}
    - {fileID: 21300000, guid: 0c77507c451ab48d6a331c057d77909f, type: 3}
    - {fileID: 21300000, guid: f8fb396f54fca4835911ab907432eba3, type: 3}
    - {fileID: 21300000, guid: 97023f0185881493d82549916e5ad263, type: 3}
    - {fileID: 21300000, guid: 81edd33b437ee4fef9930e07644e0163, type: 3}
    - {fileID: 21300000, guid: a0eaa407bdb924f2baf53900ddb06fea, type: 3}
    - {fileID: 21300000, guid: d4d4eedb104e443af8472d606ddef2da, type: 3}
    - {fileID: 21300000, guid: 89b2c664d4533406692051e65bb2a349, type: 3}
    - {fileID: 21300000, guid: df8b3e45f1d4548628da7bcb54515d71, type: 3}
    - {fileID: 21300000, guid: c8d87d140de564c10ad062ad59ca0fb9, type: 3}
    - {fileID: 21300000, guid: aeaec4c26c7ba4762a5f73b70b70307b, type: 3}
    - {fileID: 21300000, guid: d448a5e066c644f9796019c504486c89, type: 3}
    - {fileID: 21300000, guid: 8dc9f08ad3b4c42c1ba9813bac1ce2ee, type: 3}
    - {fileID: 21300000, guid: 2282b0e073883472eab93fab57f32d31, type: 3}
  m_AnimationClipSettings:
    serializedVersion: 2
    m_AdditiveReferencePoseClip: {fileID: 0}
    m_AdditiveReferencePoseTime: 0
    m_StartTime: 0
    m_StopTime: 0.6666667
    m_OrientationOffsetY: 0
    m_Level: 0
    m_CycleOffset: 0
    m_HasAdditiveReferencePose: 0
    m_LoopTime: 1
    m_LoopBlend: 0
    m_LoopBlendOrientation: 0
    m_LoopBlendPositionY: 0
    m_LoopBlendPositionXZ: 0
    m_KeepOriginalOrientation: 0
    m_KeepOriginalPositionY: 1
    m_KeepOriginalPositionXZ: 0
    m_HeightFromFeet: 0
    m_Mirror: 0
  m_EditorCurves: []
  m_EulerEditorCurves: []
  m_HasGenericRootTransform: 0
  m_HasMotionFloatCurves: 0
  m_GenerateMotionCurves: 0
  m_Events: []
