%YAML 1.1
%TAG !u! tag:unity3d.com,2011:
--- !u!74 &7400000
AnimationClip:
  m_ObjectHideFlags: 0
  m_PrefabParentObject: {fileID: 0}
  m_PrefabInternal: {fileID: 0}
  m_Name: ZOMBIE_NINJA_WALK
  serializedVersion: 6
  m_Legacy: 0
  m_Compressed: 0
  m_UseHighQualityCurve: 1
  m_RotationCurves: []
  m_CompressedRotationCurves: []
  m_EulerCurves: []
  m_PositionCurves: []
  m_ScaleCurves: []
  m_FloatCurves: []
  m_PPtrCurves:
  - curve:
    - time: 0
      value: {fileID: 21300000, guid: 8359ffd984fca4e8bbf6c2149b90a6a2, type: 3}
    - time: 0.041666668
      value: {fileID: 21300000, guid: 084beb4c6c9b94c109e94129f68a9be4, type: 3}
    - time: 0.083333336
      value: {fileID: 21300000, guid: 411df81f580254119b1e0ae3173542ed, type: 3}
    - time: 0.125
      value: {fileID: 21300000, guid: 2440af9d0cbf54e199366cfa42f3b901, type: 3}
    - time: 0.16666667
      value: {fileID: 21300000, guid: 13726c8df10e94aa1ae6be3625df34de, type: 3}
    - time: 0.20833334
      value: {fileID: 21300000, guid: 7318dcf472319487d97dca376c8aa714, type: 3}
    - time: 0.25
      value: {fileID: 21300000, guid: 1c655ddadb40e49c5ab9b28908da9dbd, type: 3}
    - time: 0.2916667
      value: {fileID: 21300000, guid: 05a1501442b604bafbf7730410e4c36f, type: 3}
    - time: 0.33333334
      value: {fileID: 21300000, guid: 2653abd1b858e405aad6629094e4a446, type: 3}
    - time: 0.375
      value: {fileID: 21300000, guid: 06f348b54a9bd4497977d7dcaf81b8e0, type: 3}
    - time: 0.4166667
      value: {fileID: 21300000, guid: 8857256cf9b6c41d28b2c966504414a9, type: 3}
    - time: 0.45833334
      value: {fileID: 21300000, guid: e3a35d38b43044135bf65f503e53ec35, type: 3}
    - time: 0.5
      value: {fileID: 21300000, guid: b58f3fc28e2b3479dafdd406351c369a, type: 3}
    - time: 0.5416667
      value: {fileID: 21300000, guid: d677f38f41e174552a79fcae566abee3, type: 3}
    - time: 0.5833334
      value: {fileID: 21300000, guid: 0a484bd1d682e4adcbde76e8e3fa4612, type: 3}
    - time: 0.625
      value: {fileID: 21300000, guid: f31cf24ecc562487cafe673e39fe8b2b, type: 3}
    attribute: m_Sprite
    path: 
    classID: 212
    script: {fileID: 0}
  m_SampleRate: 24
  m_WrapMode: 0
  m_Bounds:
    m_Center: {x: 0, y: 0, z: 0}
    m_Extent: {x: 0, y: 0, z: 0}
  m_ClipBindingConstant:
    genericBindings:
    - path: 0
      attribute: 0
      script: {fileID: 0}
      classID: 212
      customType: 23
      isPPtrCurve: 1
    pptrCurveMapping:
    - {fileID: 21300000, guid: 8359ffd984fca4e8bbf6c2149b90a6a2, type: 3}
    - {fileID: 21300000, guid: 084beb4c6c9b94c109e94129f68a9be4, type: 3}
    - {fileID: 21300000, guid: 411df81f580254119b1e0ae3173542ed, type: 3}
    - {fileID: 21300000, guid: 2440af9d0cbf54e199366cfa42f3b901, type: 3}
    - {fileID: 21300000, guid: 13726c8df10e94aa1ae6be3625df34de, type: 3}
    - {fileID: 21300000, guid: 7318dcf472319487d97dca376c8aa714, type: 3}
    - {fileID: 21300000, guid: 1c655ddadb40e49c5ab9b28908da9dbd, type: 3}
    - {fileID: 21300000, guid: 05a1501442b604bafbf7730410e4c36f, type: 3}
    - {fileID: 21300000, guid: 2653abd1b858e405aad6629094e4a446, type: 3}
    - {fileID: 21300000, guid: 06f348b54a9bd4497977d7dcaf81b8e0, type: 3}
    - {fileID: 21300000, guid: 8857256cf9b6c41d28b2c966504414a9, type: 3}
    - {fileID: 21300000, guid: e3a35d38b43044135bf65f503e53ec35, type: 3}
    - {fileID: 21300000, guid: b58f3fc28e2b3479dafdd406351c369a, type: 3}
    - {fileID: 21300000, guid: d677f38f41e174552a79fcae566abee3, type: 3}
    - {fileID: 21300000, guid: 0a484bd1d682e4adcbde76e8e3fa4612, type: 3}
    - {fileID: 21300000, guid: f31cf24ecc562487cafe673e39fe8b2b, type: 3}
  m_AnimationClipSettings:
    serializedVersion: 2
    m_AdditiveReferencePoseClip: {fileID: 0}
    m_AdditiveReferencePoseTime: 0
    m_StartTime: 0
    m_StopTime: 0.6666667
    m_OrientationOffsetY: 0
    m_Level: 0
    m_CycleOffset: 0
    m_HasAdditiveReferencePose: 0
    m_LoopTime: 1
    m_LoopBlend: 0
    m_LoopBlendOrientation: 0
    m_LoopBlendPositionY: 0
    m_LoopBlendPositionXZ: 0
    m_KeepOriginalOrientation: 0
    m_KeepOriginalPositionY: 1
    m_KeepOriginalPositionXZ: 0
    m_HeightFromFeet: 0
    m_Mirror: 0
  m_EditorCurves: []
  m_EulerEditorCurves: []
  m_HasGenericRootTransform: 0
  m_HasMotionFloatCurves: 0
  m_GenerateMotionCurves: 0
  m_Events: []
