%YAML 1.1
%TAG !u! tag:unity3d.com,2011:
--- !u!74 &7400000
AnimationClip:
  m_ObjectHideFlags: 0
  m_PrefabParentObject: {fileID: 0}
  m_PrefabInternal: {fileID: 0}
  m_Name: ZOMBIE_NINJA_RUN
  serializedVersion: 6
  m_Legacy: 0
  m_Compressed: 0
  m_UseHighQualityCurve: 1
  m_RotationCurves: []
  m_CompressedRotationCurves: []
  m_EulerCurves: []
  m_PositionCurves: []
  m_ScaleCurves: []
  m_FloatCurves: []
  m_PPtrCurves:
  - curve:
    - time: 0
      value: {fileID: 21300000, guid: 2c6d67ea4066442c18fa2b00d02e7fbe, type: 3}
    - time: 0.041666668
      value: {fileID: 21300000, guid: 100b8f9b63d2c4596bdb69323e053c6b, type: 3}
    - time: 0.083333336
      value: {fileID: 21300000, guid: 6b6665744b60241a58bab085ea7bdfef, type: 3}
    - time: 0.125
      value: {fileID: 21300000, guid: 6e33bc391a384412fa2eadbbb9681682, type: 3}
    - time: 0.16666667
      value: {fileID: 21300000, guid: 1dea44d320b624a018635eb4ad6e5884, type: 3}
    - time: 0.20833334
      value: {fileID: 21300000, guid: 7d6203e20dd9d4485b1b6971eee0a28c, type: 3}
    - time: 0.25
      value: {fileID: 21300000, guid: aea30ec9a683b45e5b24c017ddbe0478, type: 3}
    - time: 0.2916667
      value: {fileID: 21300000, guid: de3d54f48ca154bc19e83ada4220299c, type: 3}
    - time: 0.33333334
      value: {fileID: 21300000, guid: 84776d072a8c34163baa8313476a2f9f, type: 3}
    - time: 0.375
      value: {fileID: 21300000, guid: f7472f827f64a4cce9ebacc2529c6e30, type: 3}
    - time: 0.4166667
      value: {fileID: 21300000, guid: 66fcef6da5ca5496d9ee7983a91891cb, type: 3}
    - time: 0.45833334
      value: {fileID: 21300000, guid: ab03a7b2021ce4addaa76a414df9c3b0, type: 3}
    - time: 0.5
      value: {fileID: 21300000, guid: 7d7fb566fdf144f0eab65df2de73cb98, type: 3}
    - time: 0.5416667
      value: {fileID: 21300000, guid: 26a05cf6e9a3d4a87a9fda6c3c68e9cd, type: 3}
    - time: 0.5833334
      value: {fileID: 21300000, guid: 2d6b0efb9b9134af2a12c86f5e0af16d, type: 3}
    - time: 0.625
      value: {fileID: 21300000, guid: 4f1e5be8cc5eb47869b6049f6a617bda, type: 3}
    - time: 0.6666667
      value: {fileID: 21300000, guid: d0ff2571b4a7b4e9982864faf939341d, type: 3}
    - time: 0.7083334
      value: {fileID: 21300000, guid: c7febe8aed08346bf872d01fb541ec7a, type: 3}
    - time: 0.75
      value: {fileID: 21300000, guid: 515a4020020bb409a86f4c7f4b46a742, type: 3}
    - time: 0.7916667
      value: {fileID: 21300000, guid: c6ccd5281a0f1460eaf0ce9d8d87f7c3, type: 3}
    attribute: m_Sprite
    path: 
    classID: 212
    script: {fileID: 0}
  m_SampleRate: 24
  m_WrapMode: 0
  m_Bounds:
    m_Center: {x: 0, y: 0, z: 0}
    m_Extent: {x: 0, y: 0, z: 0}
  m_ClipBindingConstant:
    genericBindings:
    - path: 0
      attribute: 0
      script: {fileID: 0}
      classID: 212
      customType: 23
      isPPtrCurve: 1
    pptrCurveMapping:
    - {fileID: 21300000, guid: 2c6d67ea4066442c18fa2b00d02e7fbe, type: 3}
    - {fileID: 21300000, guid: 100b8f9b63d2c4596bdb69323e053c6b, type: 3}
    - {fileID: 21300000, guid: 6b6665744b60241a58bab085ea7bdfef, type: 3}
    - {fileID: 21300000, guid: 6e33bc391a384412fa2eadbbb9681682, type: 3}
    - {fileID: 21300000, guid: 1dea44d320b624a018635eb4ad6e5884, type: 3}
    - {fileID: 21300000, guid: 7d6203e20dd9d4485b1b6971eee0a28c, type: 3}
    - {fileID: 21300000, guid: aea30ec9a683b45e5b24c017ddbe0478, type: 3}
    - {fileID: 21300000, guid: de3d54f48ca154bc19e83ada4220299c, type: 3}
    - {fileID: 21300000, guid: 84776d072a8c34163baa8313476a2f9f, type: 3}
    - {fileID: 21300000, guid: f7472f827f64a4cce9ebacc2529c6e30, type: 3}
    - {fileID: 21300000, guid: 66fcef6da5ca5496d9ee7983a91891cb, type: 3}
    - {fileID: 21300000, guid: ab03a7b2021ce4addaa76a414df9c3b0, type: 3}
    - {fileID: 21300000, guid: 7d7fb566fdf144f0eab65df2de73cb98, type: 3}
    - {fileID: 21300000, guid: 26a05cf6e9a3d4a87a9fda6c3c68e9cd, type: 3}
    - {fileID: 21300000, guid: 2d6b0efb9b9134af2a12c86f5e0af16d, type: 3}
    - {fileID: 21300000, guid: 4f1e5be8cc5eb47869b6049f6a617bda, type: 3}
    - {fileID: 21300000, guid: d0ff2571b4a7b4e9982864faf939341d, type: 3}
    - {fileID: 21300000, guid: c7febe8aed08346bf872d01fb541ec7a, type: 3}
    - {fileID: 21300000, guid: 515a4020020bb409a86f4c7f4b46a742, type: 3}
    - {fileID: 21300000, guid: c6ccd5281a0f1460eaf0ce9d8d87f7c3, type: 3}
  m_AnimationClipSettings:
    serializedVersion: 2
    m_AdditiveReferencePoseClip: {fileID: 0}
    m_AdditiveReferencePoseTime: 0
    m_StartTime: 0
    m_StopTime: 0.8333334
    m_OrientationOffsetY: 0
    m_Level: 0
    m_CycleOffset: 0
    m_HasAdditiveReferencePose: 0
    m_LoopTime: 1
    m_LoopBlend: 0
    m_LoopBlendOrientation: 0
    m_LoopBlendPositionY: 0
    m_LoopBlendPositionXZ: 0
    m_KeepOriginalOrientation: 0
    m_KeepOriginalPositionY: 1
    m_KeepOriginalPositionXZ: 0
    m_HeightFromFeet: 0
    m_Mirror: 0
  m_EditorCurves: []
  m_EulerEditorCurves: []
  m_HasGenericRootTransform: 0
  m_HasMotionFloatCurves: 0
  m_GenerateMotionCurves: 0
  m_Events: []
