%YAML 1.1
%TAG !u! tag:unity3d.com,2011:
--- !u!74 &7400000
AnimationClip:
  m_ObjectHideFlags: 0
  m_PrefabParentObject: {fileID: 0}
  m_PrefabInternal: {fileID: 0}
  m_Name: BC_LEFT_GRAPPLE_HANG
  serializedVersion: 6
  m_Legacy: 0
  m_Compressed: 0
  m_UseHighQualityCurve: 1
  m_RotationCurves: []
  m_CompressedRotationCurves: []
  m_EulerCurves: []
  m_PositionCurves: []
  m_ScaleCurves: []
  m_FloatCurves: []
  m_PPtrCurves:
  - curve:
    - time: 0
      value: {fileID: 21300000, guid: e18c20901e8d343f8a5a5f2215027931, type: 3}
    - time: 0.083333336
      value: {fileID: 21300000, guid: ebeae2c89f2d74090a1b19d4c66ece8b, type: 3}
    - time: 0.16666667
      value: {fileID: 21300000, guid: 94ae2d995259f489bbb76505334f6f34, type: 3}
    - time: 0.25
      value: {fileID: 21300000, guid: 2ae01476798eb4cb6b30d07b12f6d5d9, type: 3}
    - time: 0.33333334
      value: {fileID: 21300000, guid: 07b71790d25a04a67a84bf6b0e158def, type: 3}
    - time: 0.41666666
      value: {fileID: 21300000, guid: f4166cf0f1761470e98e8da7c784bec5, type: 3}
    - time: 0.5
      value: {fileID: 21300000, guid: 40e339e0539ea4ca58b6bdb40118cae8, type: 3}
    - time: 0.5833333
      value: {fileID: 21300000, guid: 47e87eff3c5bd46609cd39c5bad7da55, type: 3}
    attribute: m_Sprite
    path: 
    classID: 212
    script: {fileID: 0}
  m_SampleRate: 12
  m_WrapMode: 0
  m_Bounds:
    m_Center: {x: 0, y: 0, z: 0}
    m_Extent: {x: 0, y: 0, z: 0}
  m_ClipBindingConstant:
    genericBindings:
    - path: 0
      attribute: 0
      script: {fileID: 0}
      classID: 212
      customType: 23
      isPPtrCurve: 1
    pptrCurveMapping:
    - {fileID: 21300000, guid: e18c20901e8d343f8a5a5f2215027931, type: 3}
    - {fileID: 21300000, guid: ebeae2c89f2d74090a1b19d4c66ece8b, type: 3}
    - {fileID: 21300000, guid: 94ae2d995259f489bbb76505334f6f34, type: 3}
    - {fileID: 21300000, guid: 2ae01476798eb4cb6b30d07b12f6d5d9, type: 3}
    - {fileID: 21300000, guid: 07b71790d25a04a67a84bf6b0e158def, type: 3}
    - {fileID: 21300000, guid: f4166cf0f1761470e98e8da7c784bec5, type: 3}
    - {fileID: 21300000, guid: 40e339e0539ea4ca58b6bdb40118cae8, type: 3}
    - {fileID: 21300000, guid: 47e87eff3c5bd46609cd39c5bad7da55, type: 3}
  m_AnimationClipSettings:
    serializedVersion: 2
    m_AdditiveReferencePoseClip: {fileID: 0}
    m_AdditiveReferencePoseTime: 0
    m_StartTime: 0
    m_StopTime: 0.6666666
    m_OrientationOffsetY: 0
    m_Level: 0
    m_CycleOffset: 0
    m_HasAdditiveReferencePose: 0
    m_LoopTime: 1
    m_LoopBlend: 0
    m_LoopBlendOrientation: 0
    m_LoopBlendPositionY: 0
    m_LoopBlendPositionXZ: 0
    m_KeepOriginalOrientation: 0
    m_KeepOriginalPositionY: 1
    m_KeepOriginalPositionXZ: 0
    m_HeightFromFeet: 0
    m_Mirror: 0
  m_EditorCurves: []
  m_EulerEditorCurves: []
  m_HasGenericRootTransform: 0
  m_HasMotionFloatCurves: 0
  m_GenerateMotionCurves: 0
  m_Events: []
